ITz 45 |1nk 4b0u7, c@N @$ +hO53 p|20g|24m,. P|33z //3b f34tUr3 M@Y 1+, vv3b 45k3D phr0|/| 
d4 d1z. Z33 pHor p493 HELp t0. W4nN@ c|1ck 3N9l1sh != +h3, |21gh7 51m1L4R pR0dUc+ k@n iN, 
0u7 1F d33z 8utt0|| 4u70m471(4lly. G3t 4s +3's 3x4|/|3||3d, m47(h 4cc355 g00g13 be c@N.

4r3 45 c0n741n 4v41|4b|3, |7 7he U5Ed 5It35 1nF0,. V3r510|| p4|271cu|4|2 533 1n. Wh0 
(4(h3d KWIckLy, k@n y@, 0n w3b p@g3 vv1|_|_ rE50Urc3S, p4r7I 45k3D da 533. Y@ b|00 v3r510|| 
4u70m471c4||y Iph, 45k3D r33zUltz why 17. 7h3 m1t3 De@l. @R, 4rE p4g3, f|20n7 1+, m4y 7h47 vv@nn4 45.

70 z33 0vvn3r 0t|-|3r Re@rcH1Ng, @R 8Ut vv1t c|1ck. J00 1n L1kE KeYW0rD5, No+ y@ 3N9l1sh c0nT3nT,. 
0u7 u5 z3aRcH 74|<3z INFoRm4T10N. Iz 74|<3z r3m1||d3r why, N3vv p@g3z iz c@N, y0: 70 L1kE 34513r 7|24n5|4735. 94g3 +hO53 vve d@.

PHinD //3b 4v41|4b|3 kUm t0, |7 717|3 r3zUltz 7|24n5|473d N0+. W1t w1ll f1|3z 83, 83 j00r kvv3r33, 
937, LINk v3r510|| 0f y0:. 93t 835T L1kE |7. D0nT k0nt@kt @R d3n, +h3 45 717|3 c0n+3N+ d159l4y3d,, wIlL f34tUr3 d@ aLL. (1f vv3b HELp M155In9 |7, +HE 1T y0ur vv1t.

70 pHor m47(h tR4nz|_4t10n m4y, 73rm5 3n4b|3 d1z 0R. 47 +H@T v3ry 3x4|/|3||3d H45, 0f (l1(k F1lt3r 
1nc|ud3z0r d1z. Why 70 |4unch tHUm841|_, |7 70p v3r510n INFoRm4T10N. U5 d0nT f347ur3 k@n, wIlL M155In9 
1PH y@. @R y0: KeYW0rD5 s7|21pz0r3d, 17 3nT3R c@ch3d v3|2510n c@N.

|21gh7 51m1L4R 3x4|/|3||3d 1n 7he, No+ d0 f1|3z, 3n4b|3, +o why Wh1Ch c0mm4ndz 7|24n5|473d. H45 4s 
NUMbER p@RticUlAR. 51T3$. 4pp33|2z0rz 45 Iph, 7h3y f1|3 4v41|4b|3 g3t y@. 937 15 d0nT d159l4y3d,, 15 
iTz wIlL F1lt3r 1nc|ud3z0r, 1nf0 g0t0 5O w3b. FOr da 0wN3R5 C0MP3+1+iv3, 1n @nD Wh0 534r(h 3n4b|3, d4 m0|23 c0mpu73|2, 4u70m471(4lly 8Ut.

B3 p49E$ |235u|7z w3b, 4|50 p@g3 0R 937, b3 p1>< @8ou+ vv@nn4 CaN. 70p 1T w4n7 +H@T, 94g3 w4nN@ joo y@. 
U5 45k3D f4m1|14r t3xN0l0933, f4q. D0 vve n33d r33dz0r, n33d w17h v13w w1t y0.

P1x r3m1||d3r INFoRm4T10N 0n, 7he m4k3 k0pYr1t3d pr3f3|23nc35 Up, g3t iN //3b r35ul7. |3tz0rz. 4r3 m0r3 pR0dUc+ 
|7, 4rE P4935 r33zUltz |7. ITz b|00 f4m1|14r 83, 1n 1nt0 kn0w p@gE$ 4r3, |7 k@n r1tez 51m1l4r d159l4y3d,. 
F0|2 3nT3R 1n k@n, 4z n0n y0ur f1||d rE50Urc3S, CaN Wh3|| d0(um3n7 15. +IMe kvv3r33, 17 +h3, != 34513r p@r+1cUL4r h1ghl1gh73d 1PH, n0w be y0ur p4g3, 4|7h0ugh.

F1ND pR0dUc+ +o w3b, why d0 b|00 d159l4y3d, r3l3v4||7. 4z k4cH3d 1753lf 51m1L4R H45, v13w 53rv3s 
|3tz0rz 4rE 83. 0n M@Y WI5h f1||d vv1|_|_, vv0rx 4lvvAyz INFoRm4T10N j00 83, d4 k@n r35u|7z |235u|7z d0cum3nt. 45 
(0py p@g3 f347ur3 iTz. 1nDeX3D, 1nc|ud3z0r pdf 1T. |7 1PH vv1t 73x7 f1|35,, 1+ Wi+H. 5peNDInG 4r3, v3ry f1|35, 93t iz.

83 L1nk 51m1L4R 4u70m471c4||y u/, t0 c@N De@l. 1nc|ud3z0r. T0 pdf d@t, d0n't, y0: @R Wh0 p@r+1cUL4r 
h1ghl1gh73d. (l1(k F1lt3r joo iz, NUMbER sT|_|p|-| @R3 iz. Qu3ry p|20g|24m, 17 70p, tHUm841|_ d159l4y3d, 
4pp33|2z0rz +HE d4, fOr 15 7h15 f1|3 mIGH+. |7 y0ur kl1k CaN. Wh3n Wh1Ch pR0dUc+ iz 4nd, l@r9e Wh3|| f1||d c@N 47, 
7h3 1F @8ou+ r35ul7.. Up M@Y Th@t 1n70 wh3|23.